-------------------------------------------------------------------------------
Test set: com.dhanjyothi.service.ServiceTest
-------------------------------------------------------------------------------
Tests run: 1, Failures: 0, Errors: 0, Skipped: 0, Time elapsed: 24.426 sec - in com.dhanjyothi.service.ServiceTest
